Random Controller (Random Scheduler) takeNextAction follow out of [,follow]
NXT action follow
Counter: 1 - follow
open using BlueCove javax.microedition.io.Connector
connecting btspp://0016531b6519:1;authenticate=false;encrypt=false
Java 1.4+ detected: 1.7.0_80; Java HotSpot(TM) 64-Bit Server VM; Oracle Corporation
Use stack ClassLoader
Library loaded from /tmp/bluecove_tomas_0/libbluecove_x64.so
BluetoothStack selected bluez
nativeDebugCallback ON
localDeviceID 0
RFCOMM connect, channel 1
Failed to connect to any NXT
ar.uba.dc.lafhis.enactment.robot.nxt.NXTCommException: Failed to connect to any NXT
	at ar.uba.dc.lafhis.enactment.robot.nxt.NXTRobotComm.checkConnection(NXTRobotComm.java:95)
	at ar.uba.dc.lafhis.enactment.robot.nxt.NXTRobotComm.follow(NXTRobotComm.java:105)
	at ar.uba.dc.lafhis.enactment.robot.NXTRobot.primitiveHandleTransitionEvent(NXTRobot.java:99)
	at ar.uba.dc.lafhis.enactment.Enactor.run(Enactor.java:111)
	at java.lang.Thread.run(Thread.java:745)
[Scheduler::primitiveHandleTransitionEvent] there is no reachable state from currentState 1 taking incoming action fail
